<?xml version="1.0" encoding="UTF-8" standalone="no"?>
<svg
   xmlns:dc="http://purl.org/dc/elements/1.1/"
   xmlns:cc="http://creativecommons.org/ns#"
   xmlns:rdf="http://www.w3.org/1999/02/22-rdf-syntax-ns#"
   xmlns:svg="http://www.w3.org/2000/svg"
   xmlns="http://www.w3.org/2000/svg"
   xmlns:sodipodi="http://sodipodi.sourceforge.net/DTD/sodipodi-0.dtd"
   xmlns:inkscape="http://www.inkscape.org/namespaces/inkscape"
   version="1.1"
   x="0px"
   y="0px"
   viewBox="0 0 100 125"
   enable-background="new 0 0 100 100"
   xml:space="preserve"
   id="svg2"
   inkscape:version="0.91 r13725"
   sodipodi:docname="add-user.svg"><metadata
     id="metadata14"><rdf:RDF><cc:Work
         rdf:about=""><dc:format>image/svg+xml</dc:format><dc:type
           rdf:resource="http://purl.org/dc/dcmitype/StillImage" /><dc:title /></cc:Work></rdf:RDF></metadata><defs
     id="defs12" /><sodipodi:namedview
     pagecolor="#ffffff"
     bordercolor="#666666"
     borderopacity="1"
     objecttolerance="10"
     gridtolerance="10"
     guidetolerance="10"
     inkscape:pageopacity="0"
     inkscape:pageshadow="2"
     inkscape:window-width="1858"
     inkscape:window-height="1057"
     id="namedview10"
     showgrid="false"
     inkscape:zoom="5.3400704"
     inkscape:cx="12.575402"
     inkscape:cy="61.747345"
     inkscape:window-x="54"
     inkscape:window-y="-8"
     inkscape:window-maximized="1"
     inkscape:current-layer="svg2" /><path
     style="fill:#4a8cc7;fill-opacity:0.43921569"
     d="m 30.488549,60.32363 c -8.365086,0 -15.169473,6.95723 -15.169473,15.508623 0,8.551394 6.804387,15.508625 15.169473,15.508625 8.365089,0 15.171411,-6.957231 15.171411,-15.508625 0,-8.551393 -6.806322,-15.508623 -15.171411,-15.508623 z M 6.3016449,62.43317 c -0.01181,0.0063 -0.02462,0.01399 -0.03688,0.02025 -0.04249,0.04496 -0.08473,0.09042 -0.126184,0.136218 0.0013,0.0067 4.92e-4,0.0136 0.0019,0.02025 0.04568,-0.02112 0.147589,-0.09979 0.161128,-0.176715 z m -0.04853,0.02578 c -0.04126,0.02085 -0.07789,0.04253 -0.124244,0.06442 0.0031,0.01651 0.0044,0.03322 0.0077,0.0497 0.05824,-0.05453 0.06039,-0.05594 0.116479,-0.114128 z m 24.2354361,0.202481 c 7.103218,0 12.882596,5.907565 12.882596,13.168984 0,7.261418 -5.779378,13.168985 -12.882596,13.168985 -7.103217,0 -12.880657,-5.90628 -12.880657,-13.168985 0,-7.262703 5.77744,-13.168984 12.880657,-13.168984 z M 5.8085549,63.189736 c 4.46e-4,0.05649 0.0028,0.113166 0.0019,0.169353 0.01344,0.01784 0.02941,0.03359 0.04271,0.05154 0.0072,-0.0346 0.0071,-0.07102 0.01746,-0.104925 0.0045,-0.01451 0.01584,-0.02636 0.02134,-0.0405 -0.0025,-0.01895 -0.0053,-0.03773 -0.0077,-0.05707 -0.02553,-0.0049 -0.05019,-0.01345 -0.07571,-0.0184 z m 2.277167,10.601088 c 0.103774,0.278904 0.111432,0.276538 0.159189,0.382885 0.10793,0.189643 -0.302356,-0.767641 -0.159189,-0.382885 z m 43.5573911,7.648468 c -1.56004,0 -2.828502,1.29893 -2.828502,2.893715 l 0,13.139533 c -2.653327,-1.42116 -5.776367,-2.185015 -9.37075,-2.185015 -0.304461,0 -0.560602,0.154839 -0.770703,0.364476 l -0.03108,-0.03129 c -0.03019,0.02957 -3.108571,3.024411 -8.153541,3.024411 -5.044969,0 -8.12335,-2.994832 -8.153542,-3.024411 l -0.02912,0.03129 c -0.210102,-0.209637 -0.467503,-0.364476 -0.770705,-0.364476 -5.991059,0 -10.702176,1.975877 -14.0046801,5.873945 -6.97363129,8.23502 -5.118817,22.01488 -5.035783,22.5975 0.08052,0.5749 0.56313,1.00322 1.13179,1.00322 l 53.7279641,0 c 0.56866,0 1.05127,-0.42703 1.131789,-1.00322 0.04404,-0.30351 0.97671,-7.18948 -0.863888,-14.1538 l 15.914939,0 c 1.560039,0 2.830445,-1.29897 2.830445,-2.89372 l 0,-22.378443 c -0.0012,-1.594785 -1.272345,-2.893715 -2.832386,-2.893715 l -21.892262,0 z m 0,2.339638 21.892262,0 c 0.29817,0 0.541629,0.249269 0.541629,0.554077 l 0,22.380273 c 0,0.30481 -0.243459,0.55225 -0.541629,0.55225 l -21.892262,0 c -0.29817,0 -0.539687,-0.24744 -0.539687,-0.55225 l 0,-22.380273 c 0,-0.304808 0.241517,-0.554077 0.539687,-0.554077 z m -58.9054686,0.703184 c -0.00259,8.31e-4 -0.00313,0.0029 -0.00583,0.0038 9.15e-4,0.01224 0.00135,0.02448 0.0019,0.03681 0.00225,-0.01386 0.00225,-0.02711 0.00392,-0.04049 z m 69.8525666,3.188241 c -0.632822,0 -1.14538,0.521983 -1.14538,1.1689 l 0,5.514996 -5.392984,0 c -0.632822,0 -1.14538,0.521982 -1.14538,1.168899 0,0.646917 0.512558,1.170739 1.14538,1.170739 l 5.392984,0 0,5.514991 c 0,0.64691 0.512558,1.16891 1.14538,1.16891 0.632823,0 1.145377,-0.522 1.145377,-1.16891 l 0,-5.514991 5.392987,0 c 0.632825,0 1.145377,-0.523822 1.145377,-1.170739 0,-0.646917 -0.512552,-1.168899 -1.145377,-1.168899 l -5.392987,0 0,-5.514996 c 0,-0.646917 -0.512554,-1.1689 -1.145377,-1.1689 z m -41.767496,9.967858 8.636931,18.290037 c 0.382465,0.80898 1.679223,0.80898 2.061684,0 l 8.636932,-18.290042 c 3.403152,0.101605 6.308159,0.942831 8.658287,2.488742 l 0,6.58633 c 0,1.5948 1.268464,2.89189 2.828501,2.89189 l 3.595325,0 c 1.505942,5.19975 1.273912,10.62714 1.085198,12.81739 l -51.6701671,0 c -0.274266,-3.23201 -0.665141,-13.51099 4.612577,-19.73323 2.7174891,-3.205157 6.6028641,-4.903219 11.5547331,-5.051124 z m 3.474964,1.982527 c 1.596524,0.73566 3.66461,1.36586 6.190869,1.36586 2.527517,0 4.595599,-0.63021 6.190868,-1.36586 L 30.488549,112.73081 24.29768,99.620736 Z m -40.313444,1.72482 c 0.0019,5.6e-4 0.0038,10e-4 0.0059,0.002 0.180924,0.052 0.368602,0.0516 0.557159,0.046 0.0022,-0.0159 0.0039,-0.0319 0.0059,-0.0479 l -0.568807,0 z m 1.502581,0 c -1.53e-4,0.004 -9e-5,0.009 0,0.0129 0.01289,-7.9e-4 0.0012,8.7e-4 0.01554,0 0.08121,-0.005 0.163348,-0.009 0.244606,-0.0129 l -0.260136,0 z m 0.407677,0 c 0.0023,0.003 0.0039,0.007 0.0078,0.007 0.01727,-3.5e-4 0.03657,-0.007 0.05436,-0.007 l -0.06212,0 z m 11.9973566,0.34238 c 0.073597,0.0167 0.1454163,0.0399 0.2193683,0.0552 0.00283,-0.0179 0.00513,-0.0359 0.00971,-0.0534 -0.076465,-9e-5 -0.1526079,-0.002 -0.229075,-0.002 z m 4.3330263,0.65716 c 0.0116,0.0563 0.01854,0.1205 0.0233,0.21905 8.07e-4,-0.018 0.0097,-0.0333 0.0097,-0.0515 -2.38e-4,-0.0593 -0.02444,-0.11058 -0.033,-0.16752 z m -1.003664,0.11413 c -0.01565,-0.01 0.05126,0.0517 0.03883,0.0387 -0.01758,-0.0185 -0.01802,-0.0199 -0.033,-0.035 -0.0019,-0.001 -0.0037,-0.003 -0.0059,-0.004 z m 0.06406,0.0423 c 0.0067,0.0217 0.02013,0.0743 0.02525,0.092 0.0099,-0.0172 0.01711,-0.0355 0.02524,-0.0534 -0.0016,-0.002 -0.0052,-0.006 -0.0059,-0.007 -0.0012,0.004 -0.004,0.006 -0.0059,0.009 -0.0025,-0.005 -0.0067,-0.009 -0.0077,-0.0147 -4.2e-5,-2.2e-4 6e-5,-0.003 0,-0.004 -0.01047,-0.007 -0.0205,-0.015 -0.03105,-0.0221 z m 0.912421,0.31662 c -0.0108,0.0396 -0.02105,0.0786 -0.03106,0.1178 l 0.0019,0 c 0.02564,-0.0577 0.02002,-0.0888 0.02912,-0.1178 z m -0.03106,0.1178 c -0.0094,0.018 -0.01565,0.0114 -0.0233,0.009 0.0026,0.0218 0.0053,0.0228 0.0077,0.0516 0.0086,-0.0189 0.01047,-0.0406 0.01553,-0.0608 z m -1.19197119,-0.0994 c -0.00218,0.011 -0.00404,0.022 -0.00589,0.0331 0.086793,-0.0262 0.14890519,-0.0292 0.20383969,-0.0331 -0.01709,8.4e-4 -0.020559,0.003 -0.040768,0.004 -0.04681,3.3e-4 -0.093217,-0.003 -0.13977539,-0.004 -0.00513,-1e-4 -0.012302,9e-5 -0.017472,0 z"
     id="path4"
     inkscape:connector-curvature="0" /><text
     x="0"
     y="115"
     font-size="5px"
     font-weight="bold"
     id="text6"
     style="font-weight:bold;font-size:5px;font-family:'Helvetica Neue', Helvetica, Arial-Unicode, Arial, Sans-serif;fill:#000000" />
<text
     x="0"
     y="120"
     font-size="5px"
     font-weight="bold"
     id="text8"
     style="font-weight:bold;font-size:5px;font-family:'Helvetica Neue', Helvetica, Arial-Unicode, Arial, Sans-serif;fill:#000000" />
<flowRoot
     xml:space="preserve"
     id="flowRoot4142"
     style="fill:black;stroke:none;stroke-opacity:1;stroke-width:1px;stroke-linejoin:miter;stroke-linecap:butt;fill-opacity:1;font-family:sans-serif;font-style:normal;font-weight:normal;font-size:40px;line-height:125%;letter-spacing:0px;word-spacing:0px"><flowRegion
       id="flowRegion4144"><rect
         id="rect4146"
         width="92.690681"
         height="88.453392"
         x="4.237288"
         y="11.122881" /></flowRegion><flowPara
       id="flowPara4148" /></flowRoot></svg>